module gitlab.com/Pudrim/pitaya-cli

go 1.13

require (
	github.com/DataDog/datadog-go v3.3.1+incompatible // indirect
	github.com/abiosoft/ishell v2.0.0+incompatible // indirect
	github.com/abiosoft/readline v0.0.0-20180607040430-155bce2042db // indirect
	github.com/chzyer/logex v1.1.10 // indirect
	github.com/chzyer/test v0.0.0-20180213035817-a1ea475d72b1 // indirect
	github.com/coreos/etcd v3.3.18+incompatible // indirect
	github.com/fatih/color v1.7.0 // indirect
	github.com/flynn-archive/go-shlex v0.0.0-20150515145356-3f9db97f8568 // indirect
	github.com/go-playground/universal-translator v0.17.0 // indirect
	github.com/gogo/protobuf v1.3.1 // indirect
	github.com/google/uuid v1.1.1 // indirect
	github.com/gorilla/websocket v1.4.1 // indirect
	github.com/jhump/protoreflect v1.6.0 // indirect
	github.com/konsorten/go-windows-terminal-sequences v1.0.2 // indirect
	github.com/leodido/go-urn v1.2.0 // indirect
	github.com/mattn/go-colorable v0.1.4 // indirect
	github.com/mattn/go-isatty v0.0.11 // indirect
	github.com/mitchellh/go-homedir v1.1.0
	github.com/nats-io/jwt v0.3.2 // indirect
	github.com/nats-io/nats.go v1.9.1 // indirect
	github.com/opentracing/opentracing-go v1.1.0 // indirect
	github.com/pelletier/go-toml v1.6.0 // indirect
	github.com/prometheus/client_golang v1.3.0 // indirect
	github.com/sirupsen/logrus v1.4.2
	github.com/spf13/afero v1.2.2 // indirect
	github.com/spf13/cast v1.3.1 // indirect
	github.com/spf13/jwalterweatherman v1.1.0 // indirect
	github.com/spf13/pflag v1.0.5 // indirect
	github.com/spf13/viper v1.6.1 // indirect
	github.com/topfreegames/go-workers v1.0.1 // indirect
	github.com/topfreegames/pitaya v1.0.0
	go.uber.org/atomic v1.5.1 // indirect
	go.uber.org/multierr v1.4.0 // indirect
	go.uber.org/zap v1.13.0 // indirect
	golang.org/x/crypto v0.0.0-20191219195013-becbf705a915 // indirect
	golang.org/x/lint v0.0.0-20191125180803-fdd1cda4f05f // indirect
	golang.org/x/net v0.0.0-20191209160850-c0dbc17a3553 // indirect
	golang.org/x/sys v0.0.0-20191224085550-c709ea063b76 // indirect
	golang.org/x/tools v0.0.0-20191224055732-dd894d0a8a40 // indirect
	google.golang.org/genproto v0.0.0-20191223191004-3caeed10a8bf // indirect
	google.golang.org/grpc v1.26.0 // indirect
	gopkg.in/abiosoft/ishell.v2 v2.0.0
	gopkg.in/go-playground/validator.v9 v9.30.2 // indirect
	gopkg.in/yaml.v2 v2.2.7 // indirect
	sigs.k8s.io/yaml v1.1.0 // indirect
)

replace (
google.golang.org/grpc => google.golang.org/grpc v1.27.0
github.com/coreos/etcd => github.com/ozonru/etcd v3.3.20-grpc1.27-origmodule+incompatible
)